Binary Multiplier 2X2/binary_array_multiplier_2x2/binary_array_multiplier_2x2.sim/sim_1/behav/xsim/simulate.log
Time resolution is 1 ps
A  B  |  P
------------
00  00  |  0000
00  01  |  0000
00  10  |  0000
00  11  |  0000
01  00  |  0000
01  01  |  0001
01  10  |  0010
01  11  |  0011
10  00  |  0000
10  01  |  0010
10  10  |  0100
10  11  |  0110
11  00  |  0000
11  01  |  0011
11  10  |  0110
11  11  |  1001
$finish called at time : 170 ns : File "E:/HDL_2026/Week_1/Day_2/Practice/Binary Array Multiplier_2X2/binary_array_multiplier_2x2/binary_array_multiplier_2x2.srcs/sources_1/new/tb_binary_array_multiplier_2x2.v" Line 50
